U.S. Election Prediction Modeling
…
Data

The data is composed of the above variables with each state having 13 entries, each state entry having a unique year. The lead up election data is shared by every state with the same year.

print(as_tibble(elections))

## # A tibble: 663 x 21
##    Year  State Total_Electors Current_Preside President_Initi President_Initi
##    <fct> <fct>          <int> <fct>                       <int>            <int>
##  1 1972  Alab              9 Republican                     59                5
##  2 1976  Alab              9 Republican                     71                3
##  3 1980  Alab              9 Democratic                     66                8
##  4 1984  Alab              9 Republican                     51               13
##  5 1988  Alab              9 Republican                     64               28
##  6 1992  Alab              9 Republican                     51                6
##  7 1996  Alab              9 Democratic                     58               20
##  8 2000  Alab              9 Democratic                     60               31
##  9 2004  Alab              9 Republican                     57               25
## 10 2008  Alab              9 Republican                     57               40
## #  with 653 more rows, and 15 more variables: President_Mid_Approval <int>,
## #   President_Mid_Disapproval <int>, President_Last_Approval <int>,
## #   President_Last_Disapproval <int>, President_Party_Mid_Change_House <int>,
## #   President_Party_Mid_Change_Senate <int>, President_News_Conference <int>,
## #   President_Ex_Orders <int>, Previous_Popular_Margin <dbl>,
## #   Previous_Electoral_Margin <dbl>, Previous_Voter_Turnout <dbl>,
## #   Change_In_Power <fct>, Impeachment_Presence <fct>, Winner <fct>,
## #   National_Winner <fct>
…
